Data Processing – Project 1 Site
…
Great, now that we have confirmed the API is returning as expected, we can test our next helper function that takes the json and turns it into a tibble.

census_data <- json_to_tibble(json)

Warning: The `x` argument of `as_tibble.matrix()` must have unique column names if
`.name_repair` is omitted as of tibble 2.0.0.
ℹ Using compatibility `.name_repair`.

census_data

# A tibble: 44,079 × 4
   SEX   PWGTP MAR   SCHL 
   <chr> <chr> <chr> <chr>
 1 2     6     5     24   
 2 2     23    2     24   
 3 1     23    3     24   
 4 1     80    5     24   
 5 1     16    1     24   
 6 1     107   3     24   
 7 2     10    5     24   
 8 1     22    1     24   
 9 2     127   5     24   
10 2     46    5     24   
# ℹ 44,069 more rows
…
 $ url        : chr "https://api.census.gov/data/2022/acs/acs1/pums?get=PWGTP,AGEP,SEX&for=state:15"
 $ status_code: int 200
 $ headers    :List of 11
  ..- attr(*, "class")= chr [1:2] "insensitive" "list"
 $ all_headers:List of 1
 $ cookies    :'data.frame':    1 obs. of  7 variables:
 $ content    : raw [1:332891] 5b 5b 22 50 ...
 $ date       : POSIXct[1:1], format: "2025-10-02 02:38:42"
 $ times      : Named num [1:6] 0 0.000013 0 0.000082 0.281486 ...
  ..- attr(*, "names")= chr [1:6] "redirect" "namelookup" "connect" "pretransfer" ...
 $ request    :List of 7
  ..- attr(*, "class")= chr "request"
 $ handle     :Class 'curl_handle' <externalptr> 
 - attr(*, "class")= chr "response"
# A tibble: 14,995 × 5
   PWGTP AGEP  SEX   state year 
   <chr> <chr> <chr> <chr> <chr>
 1 94    22    1     15    2022 
 2 55    57    1     15    2022 
 3 41    20    1     15    2022 
 4 38    18    1     15    2022 
 5 11    34    1     15    2022 
 6 69    29    1     15    2022 
 7 3     20    2     15    2022 
 8 13    48    1     15    2022 
 9 16    70    2     15    2022 
10 30    25    1     15    2022 
# ℹ 14,985 more rows
…
print(data)

# A tibble: 14,995 × 16
   PWGTP AGEP  JWAP  JWDP  JWMNP GASP  GRPIP SEX   SCH   SCHL  JWTRNS FER  
   <chr> <chr> <chr> <chr> <chr> <chr> <chr> <chr> <chr> <chr> <chr>  <chr>
 1 94    22    107   67    5     3     0     1     1     16    1      0    
 2 55    57    0     0     0     3     0     1     1     19    0      0    
 3 41    20    77    37    5     3     0     1     1     16    1      0    
 4 38    18    0     0     0     3     0     1     2     20    0      0    
 5 11    34    0     0     0     3     0     1     1     20    0      0    
 6 69    29    0     0     0     3     0     1     1     14    0      0    
 7 3     20    0     0     0     3     0     2     2     18    0      2    
 8 13    48    0     0     0     3     0     1     1     17    0      0    
 9 16    70    0     0     0     3     0     2     1     18    0      0    
10 30    25    77    37    5     3     0     1     1     19    1      0    
# ℹ 14,985 more rows
# ℹ 4 more variables: HISPEED <chr>, HHL <chr>, state <chr>, year <chr>
…
print(data)

# A tibble: 14,995 × 16
   PWGTP  AGEP JWMNP  GASP GRPIP SEX    SCH     SCHL  JWTRNS FER   HISPEED HHL  
   <int> <int> <int> <int> <int> <fct>  <fct>   <fct> <fct>  <fct> <fct>   <fct>
 1    94    22     5     3     0 Male   No, ha… Regu… Car, … N/A … N/A (G… N/A …
 2    55    57     0     3     0 Male   No, ha… 1 or… N/A (… N/A … N/A (G… N/A …
 3    41    20     5     3     0 Male   No, ha… Regu… Car, … N/A … N/A (G… N/A …
 4    38    18     0     3     0 Male   Yes, p… Asso… N/A (… N/A … N/A (G… N/A …
 5    11    34     0     3     0 Male   No, ha… Asso… N/A (… N/A … N/A (G… N/A …
 6    69    29     0     3     0 Male   No, ha… Grad… N/A (… N/A … N/A (G… N/A …
 7     3    20     0     3     0 Female Yes, p… Some… N/A (… No    N/A (G… N/A …
 8    13    48     0     3     0 Male   No, ha… GED … N/A (… N/A … N/A (G… N/A …
 9    16    70     0     3     0 Female No, ha… Some… N/A (… N/A … N/A (G… N/A …
10    30    25     5     3     0 Male   No, ha… 1 or… Car, … N/A … N/A (G… N/A …
# ℹ 14,985 more rows
# ℹ 4 more variables: ST <fct>, year <chr>, JWAP <Period>, JWDP <Period>
…
print(data)

# A tibble: 14,995 × 16
   PWGTP  AGEP JWMNP  GASP GRPIP SEX    SCH     SCHL  JWTRNS FER   HISPEED HHL  
   <int> <int> <int> <int> <int> <fct>  <fct>   <fct> <fct>  <fct> <fct>   <fct>
 1    94    22     5     3     0 Male   No, ha… Regu… Car, … N/A … N/A (G… N/A …
 2    55    57     0     3     0 Male   No, ha… 1 or… N/A (… N/A … N/A (G… N/A …
 3    41    20     5     3     0 Male   No, ha… Regu… Car, … N/A … N/A (G… N/A …
 4    38    18     0     3     0 Male   Yes, p… Asso… N/A (… N/A … N/A (G… N/A …
 5    11    34     0     3     0 Male   No, ha… Asso… N/A (… N/A … N/A (G… N/A …
 6    69    29     0     3     0 Male   No, ha… Grad… N/A (… N/A … N/A (G… N/A …
 7     3    20     0     3     0 Female Yes, p… Some… N/A (… No    N/A (G… N/A …
 8    13    48     0     3     0 Male   No, ha… GED … N/A (… N/A … N/A (G… N/A …
 9    16    70     0     3     0 Female No, ha… Some… N/A (… N/A … N/A (G… N/A …
10    30    25     5     3     0 Male   No, ha… 1 or… Car, … N/A … N/A (G… N/A …
# ℹ 14,985 more rows
# ℹ 4 more variables: ST <fct>, year <chr>, JWAP <Period>, JWDP <Period>
…
print(final_tbl)

# A tibble: 29,954 × 6
   PWGTP SEX    ST        year  JWAP      JWDP     
   <int> <fct>  <fct>     <chr> <Period>  <Period> 
 1    65 Female Hawaii/HI 2021  3H 15M 0S 3H 5M 0S 
 2    15 Male   Hawaii/HI 2021  NA        NA       
 3    46 Male   Hawaii/HI 2021  NA        NA       
 4    15 Female Hawaii/HI 2021  NA        NA       
 5    90 Male   Hawaii/HI 2021  1H 45M 0S 1H 35M 0S
 6    27 Male   Hawaii/HI 2021  2H 55M 0S 2H 35M 0S
 7    98 Male   Hawaii/HI 2021  1H 45M 0S 1H 35M 0S
 8   114 Male   Hawaii/HI 2021  1H 35M 0S 1H 35M 0S
 9   144 Male   Hawaii/HI 2021  NA        NA       
10    92 Male   Hawaii/HI 2021  NA        NA       
# ℹ 29,944 more rows
…
