Data Exploration – Project 1 Site
…
Pulling in Data

For the data exploration part, we will try to investigate the cost of living difference in Hawaii, and Illinois by comparing gas price (GASP) and gross rent as percentage of household income (GRPIP)

First, we can pull in the data for Illinois.

# Load in the data that we pulled at the end of data_exploration for Illinois
explore_il <- readRDS("explore_il.rds")
print(explore_il)

# A tibble: 128,046 × 7
   PWGTP  AGEP GRPIP  GASP SEX    ST          year 
   <int> <int> <int> <int> <fct>  <fct>       <chr>
 1    32    82     0     3 Female Illinois/IL 2022 
 2    91    43     0     3 Male   Illinois/IL 2022 
 3    45    18     0     3 Female Illinois/IL 2022 
 4    38    49     0     3 Male   Illinois/IL 2022 
 5     8    42     0     3 Male   Illinois/IL 2022 
 6     7    83     0     3 Male   Illinois/IL 2022 
 7     6    88     0     3 Female Illinois/IL 2022 
 8    59    23     0     3 Female Illinois/IL 2022 
 9    64    56     0     3 Female Illinois/IL 2022 
10     9    21     0     3 Female Illinois/IL 2022 
# ℹ 128,036 more rows

Next, we will do the same for Hawaii

# Load in the data that we pulled at the end of data_exploration for Hawaii
explore_hi <- readRDS("explore_hi.rds")
print(explore_hi)

# A tibble: 14,995 × 7
   PWGTP  AGEP GRPIP  GASP SEX    ST        year 
   <int> <int> <int> <int> <fct>  <fct>     <chr>
 1    94    22     0     3 Male   Hawaii/HI 2022 
 2    55    57     0     3 Male   Hawaii/HI 2022 
 3    41    20     0     3 Male   Hawaii/HI 2022 
 4    38    18     0     3 Male   Hawaii/HI 2022 
 5    11    34     0     3 Male   Hawaii/HI 2022 
 6    69    29     0     3 Male   Hawaii/HI 2022 
 7     3    20     0     3 Female Hawaii/HI 2022 
 8    13    48     0     3 Male   Hawaii/HI 2022 
 9    16    70     0     3 Female Hawaii/HI 2022 
10    30    25     0     3 Male   Hawaii/HI 2022 
# ℹ 14,985 more rows
…
class(explore_his)

[1] "list"

From the results above, we can see that rent seems to be a larger portion of income in Hawaii, which one might expect considering Hawaii is known for having a higher cost of living. However, it is worth noting that the standard deviations of both groups are fairly high showing there is quite a bit of variability in that field for both states. Interestingly, the amount spent on gas seems to be much lower in Hawaii. A quick look at the variable description shows that the gas that is being measured here appears to be natural gas. This makes our result make more sense as the climate in Hawaii is much warmer, likely causing less need to use natural gas for heating your home. Conversly, Illinois experiences very cold winters, likely attributing to the increased spend on gas.

Plotting

Next, we can explore the plots of each state. We can do this by running our plotting function. First, let’s combine the two tibbles to get all of the data into a single tibble for analysis.

# We can simply combine the rows of the two tibbles 
explore_both <- bind_rows(explore_il, explore_hi)
print(explore_both)

# A tibble: 143,041 × 7
   PWGTP  AGEP GRPIP  GASP SEX    ST          year 
   <int> <int> <int> <int> <fct>  <fct>       <chr>
 1    32    82     0     3 Female Illinois/IL 2022 
 2    91    43     0     3 Male   Illinois/IL 2022 
 3    45    18     0     3 Female Illinois/IL 2022 
 4    38    49     0     3 Male   Illinois/IL 2022 
 5     8    42     0     3 Male   Illinois/IL 2022 
 6     7    83     0     3 Male   Illinois/IL 2022 
 7     6    88     0     3 Female Illinois/IL 2022 
 8    59    23     0     3 Female Illinois/IL 2022 
 9    64    56     0     3 Female Illinois/IL 2022 
10     9    21     0     3 Female Illinois/IL 2022 
# ℹ 143,031 more rows
…
